operations,graph_nodes,graph_edges,graph_ce,graph_dt,graph_ci,gen_func_t,cpu_compile_t,cpu_st_t,cpu_mt_t,gpu_compile_t,gpu_t
0,77,101,252.0,6240.0,0.04038461538461539,0.02087051,8.691e-6,3.405098066,0.244763721,1.565749515,0.936213163
1,76,99,246.0,6240.0,0.03942307692307692,0.020658734,9.36e-6,3.244313848,0.230460257,1.548012602,0.887605389
2,75,97,240.0,6240.0,0.038461538461538464,0.045333482,8.74e-6,3.163679857,0.217614064,1.52780456,0.816496837
3,74,95,234.0,6240.0,0.0375,0.020314034,9.081e-6,2.956421016,0.183415997,1.524262179,0.793770075
4,73,93,228.0,6240.0,0.03653846153846154,0.033579409,8.52e-6,2.845414866,0.19168374,1.50907807,0.742734411
5,72,92,228.0,6144.0,0.037109375,0.019736718,8.87e-6,2.827109937,0.207452606,1.497203204,0.719774022
6,71,90,222.0,6144.0,0.0361328125,0.043612693,1.01e-5,2.62776692,0.166492497,1.602060948,0.668929854
7,70,89,222.0,6048.0,0.03670634920634921,0.042731148,1.053e-5,2.631288029,0.185812224,1.514154792,0.694503947
8,69,87,216.0,6048.0,0.03571428571428571,0.042148711,8.19e-6,2.493343257,0.183595081,1.506478504,0.652420896
9,68,86,216.0,5952.0,0.036290322580645164,0.041568955,8.571e-6,2.487317627,0.147773078,1.472141844,0.653143947
10,67,85,216.0,5856.0,0.036885245901639344,0.041307868,9.13e-6,2.491634709,0.175728138,1.482162906,0.63058774
11,66,84,216.0,5760.0,0.0375,0.041265756,8.43e-6,2.516916643,0.180420842,1.463053866,0.650627815
12,65,83,205.0,5760.0,0.035590277777777776,0.039711293,9.22e-6,2.479664249,0.178013433,1.459566956,0.652477867
13,64,82,205.0,5664.0,0.03619350282485876,0.030866093,8.87e-6,2.485424881,0.179983608,1.564961227,0.647932468
14,63,81,205.0,5568.0,0.03681752873563218,0.029946916,8.93e-6,2.469922022,0.179443854,1.485935831,0.651804318
